Reportes Automáticos - Appendix A — R Project
…
E.3.1 Select

select Seleccionar variables relevantes

# seleccionar nomnres de columnas que deseo conservar
tbl_sii %>%
  select(n_com, oficinas, comercio, vivienda)

# A tibble: 210,662 × 4
   n_com         oficinas comercio vivienda
   <chr>            <dbl>    <dbl>    <dbl>
 1 IQUIQUE              0        0        0
 2 IQUIQUE              0        0        0
 3 ALTO HOSPICIO        0        0        0
 4 ALTO HOSPICIO        0        0        0
 5 ALTO HOSPICIO        0        0        0
 6 ALTO HOSPICIO        0        0        0
 7 ALTO HOSPICIO        0        0        0
 8 ALTO HOSPICIO        0        0        0
 9 ALTO HOSPICIO        0        0        0
10 ALTO HOSPICIO        0        0        0
# ℹ 210,652 more rows

# seleccionar nomnres de columnas que deseo eliminar anteponiendo un "-"
tbl_sii %>%
  select(-cod_com)

# A tibble: 210,662 × 9
   n_com         manzana   reg num_manz oficinas comercio vivienda total   AREA
   <chr>         <chr>   <dbl>    <dbl>    <dbl>    <dbl>    <dbl> <dbl>  <dbl>
 1 IQUIQUE       1201-0      1        0        0        0        0     0   585.
 2 IQUIQUE       1201-0      1        0        0        0        0     0 17291.
 3 ALTO HOSPICIO 1211-0      1        0        0        0        0     0  1859.
 4 ALTO HOSPICIO 1211-0      1        0        0        0        0     0   442.
 5 ALTO HOSPICIO 1211-0      1        0        0        0        0     0   205.
 6 ALTO HOSPICIO 1211-0      1        0        0        0        0     0  1200.
 7 ALTO HOSPICIO 1211-0      1        0        0        0        0     0  4548.
 8 ALTO HOSPICIO 1211-0      1        0        0        0        0     0   130.
 9 ALTO HOSPICIO 1211-0      1        0        0        0        0     0   300.
10 ALTO HOSPICIO 1211-0      1        0        0        0        0     0  6488.
# ℹ 210,652 more rows
…
    isTRUE(x) 
    x es verdadero (afirmación) 
    isTRUE(TRUE) 
    TRUE 

Filtrar las manzanas que tengan valores de oficina y comercio mayores a 0

sii_com %>%
  filter(oficinas > 0 & comercio > 0) 

# A tibble: 493 × 10
   n_com manzana   reg cod_com num_manz oficinas comercio vivienda  total   AREA
   <chr> <chr>   <dbl>   <dbl>    <dbl>    <dbl>    <dbl>    <dbl>  <dbl>  <dbl>
 1 LAS … 15108-…    13   15108     2400     322     3388    65422  1.22e5 1.06e5
 2 LAS … 15108-…    13   15108     2407   30864     2518        0  7.50e4 4.04e3
 3 LAS … 15108-…    13   15108     1392     424     9902        0  1.58e4 1.27e4
 4 LAS … 15108-…    13   15108      336   45190     1432        0  8.28e4 3.24e3
 5 LAS … 15108-…    13   15108      338     424.     244.    9993. 1.17e4 1.11e4
 6 LAS … 15108-…    13   15108      338     414.     238.    9765. 1.14e4 1.06e4
 7 LAS … 15108-…    13   15108      339    1120     5274     7748  1.49e4 9.38e3
 8 LAS … 15108-…    13   15108      340     250       72    55206  7.23e4 1.22e4
 9 LAS … 15108-…    13   15108      342     494     1914    47690  6.97e4 1.62e4
10 LAS … 15108-…    13   15108      349   17826     1568        0  3.38e4 1.84e3
# ℹ 483 more rows
…
Contabilizar cuantos metros cuadrados de oficina por cada comuna.

tbl_resumen <-  tbl_sii %>%
  group_by(n_com) %>%
  summarise(Cantidad_mz = n(),
            Total_of = sum(oficinas)) %>%
  arrange(desc(Total_of)) # Ordenar

tbl_resumen

# A tibble: 170 × 3
   n_com           Cantidad_mz Total_of
   <chr>                 <int>    <dbl>
 1 SANTIAGO CENTRO         686  6105996
 2 LAS CONDES             2310  4248336
 3 PROVIDENCIA             885  3495426
 4 HUECHURABA             1160  1006138
 5 QUILICURA              2592   751874
 6 VITACURA                950   743734
 7 SANTIAGO SUR            623   669270
 8 Ã‘UÃ‘OA                1337   637982
 9 SANTIAGO OESTE          586   586724
10 PUDAHUEL               2775   561868
# ℹ 160 more rows
…
